/* XPM */
static char * close_pressed_xpm[] = {
"24 24 99 2",
"  	c None",
". 	c #707070",
"+ 	c #515151",
"@ 	c #505050",
"# 	c #4F4F4F",
"$ 	c #4E4E4E",
"% 	c #5D5D5D",
"& 	c #8D8D8D",
"* 	c #B9B9B9",
"= 	c #CDCDCD",
"- 	c #5C5C5C",
"; 	c #4D4D4D",
"> 	c #9F9F9F",
", 	c #E2E2E2",
"' 	c #E6E6E6",
") 	c #E0E0E0",
"! 	c #4C4C4C",
"~ 	c #525252",
"{ 	c #C0C0C0",
"] 	c #BCBCBC",
"^ 	c #9C9C9C",
"/ 	c #969696",
"( 	c #4B4B4B",
"_ 	c #A8A8A8",
": 	c #DDDDDD",
"< 	c #A3A3A1",
"[ 	c #939392",
"} 	c #A2A2A1",
"| 	c #A6A6A6",
"1 	c #4A4A4A",
"2 	c #666666",
"3 	c #E4E4E4",
"4 	c #A0A0A0",
"5 	c #CCCCCC",
"6 	c #D1D1D1",
"7 	c #8F8F8F",
"8 	c #656565",
"9 	c #ADADAD",
"0 	c #C4C4C4",
"a 	c #8C8C8C",
"b 	c #D6D6D6",
"c 	c #939393",
"d 	c #494949",
"e 	c #DCDCDC",
"f 	c #A5A5A5",
"g 	c #898989",
"h 	c #909090",
"i 	c #DBDBDB",
"j 	c #484848",
"k 	c #969695",
"l 	c #858584",
"m 	c #8D8D8C",
"n 	c #474747",
"o 	c #818181",
"p 	c #D5D5D5",
"q 	c #464646",
"r 	c #9E9E9D",
"s 	c #7D7D7D",
"t 	c #858585",
"u 	c #D4D4D4",
"v 	c #9F9F9E",
"w 	c #DADADA",
"x 	c #454545",
"y 	c #ABABAB",
"z 	c #BDBDBD",
"A 	c #7A7A79",
"B 	c #CDCDCC",
"C 	c #D3D3D3",
"D 	c #828282",
"E 	c #444444",
"F 	c #606060",
"G 	c #E3E3E3",
"H 	c #CBCBCB",
"I 	c #7E7E7E",
"J 	c #757575",
"K 	c #434343",
"L 	c #A4A4A4",
"M 	c #D9D9D9",
"N 	c #878786",
"O 	c #727271",
"P 	c #888887",
"Q 	c #A3A3A3",
"R 	c #DFDFDF",
"S 	c #A7A7A7",
"T 	c #777777",
"U 	c #6D6D6D",
"V 	c #A9A9A9",
"W 	c #424242",
"X 	c #9A9A9A",
"Y 	c #E1E1E1",
"Z 	c #DEDEDE",
"` 	c #414141",
" .	c #838383",
"..	c #B4B4B4",
"+.	c #CACACA",
"@.	c #404040",
"#.	c #3F3F3F",
"$.	c #3E3E3E",
"%.	c #3D3D3D",
". . . . . . . . . . . . . . . . . . . . . . . . ",
"+ + + + + + + + + + + + + + + + + + + + + + + + ",
"@ @ @ @ @ @ @ @ @ @ @ @ @ @ @ @ @ @ @ @ @ @ @ @ ",
"# # # # # # # # # # # # # # # # # # # # # # # # ",
"$ $ $ $ $ $ $ $ % & * = = * & - $ $ $ $ $ $ $ $ ",
"; ; ; ; ; ; @ > , ' ' ) ) ' ' , > @ ; ; ; ; ; ; ",
"! ! ! ! ! ~ { ' ) ] ^ / / ^ ] , ' { + ! ! ! ! ! ",
"( ( ( ( ( _ ' : < [ [ [ [ [ [ } : ' | ( ( ( ( ( ",
"1 1 1 1 2 3 3 4 5 6 / 7 7 / 6 5 4 3 3 8 1 1 1 1 ",
"1 1 1 1 9 ' 0 a 6 ' b c c b ' 6 a 0 ' 9 1 1 1 1 ",
"d d d d e ' f g h b ' b b ' b h g | ' i d d d d ",
"j j j j ' ' k l l m b ' ' b m l l k ' ' j j j j ",
"n n n n ' ' c o o g p ' ' p g o o c ' ' n n n n ",
"q q q q i ' r s t u ' p p ' u t s v ' w q q q q ",
"x x x x y ' z A B ' C D D C ' B A z ' y x x x x ",
"E E E E F 3 G a 0 H I J J I H 0 & 3 3 F E E E E ",
"K K K K K L ' M N O O O O O O P M ' Q K K K K K ",
"K K K K K n z ' R S T U U T V ) ' z q K K K K K ",
"W W W W W W x X Y ' ' Z Z ' ' ) X x W W W W W W ",
"` ` ` ` ` ` ` ` @  ...+.+... .@ ` ` ` ` ` ` ` ` ",
"@.@.@.@.@.@.@.@.@.@.@.@.@.@.@.@.@.@.@.@.@.@.@.@.",
"#.#.#.#.#.#.#.#.#.#.#.#.#.#.#.#.#.#.#.#.#.#.#.#.",
"$.$.$.$.$.$.$.$.$.$.$.$.$.$.$.$.$.$.$.$.$.$.$.$.",
"%.%.%.%.%.%.%.%.%.%.%.%.%.%.%.%.%.%.%.%.%.%.%.%."};
