/* XPM */
static char * stick_xpm[] = {
"24 24 73 1",
" 	c None",
".	c #707070",
"+	c #515151",
"@	c #505050",
"#	c #4F4F4F",
"$	c #4E4E4E",
"%	c #5D5D5D",
"&	c #8D8D8D",
"*	c #B9B9B9",
"=	c #CDCDCD",
"-	c #5C5C5C",
";	c #4D4D4D",
">	c #9F9F9F",
",	c #E2E2E2",
"'	c #E6E6E6",
")	c #DBDBDB",
"!	c #4C4C4C",
"~	c #525252",
"{	c #C0C0C0",
"]	c #DEDEDE",
"^	c #959595",
"/	c #555555",
"(	c #565656",
"_	c #969696",
":	c #DFDFDF",
"<	c #4B4B4B",
"[	c #A8A8A8",
"}	c #D4D4D4",
"|	c #666666",
"1	c #D5D5D5",
"2	c #A6A6A6",
"3	c #4A4A4A",
"4	c #E4E4E4",
"5	c #E1E1E1",
"6	c #686868",
"7	c #696969",
"8	c #656565",
"9	c #ADADAD",
"0	c #AAAAAA",
"a	c #ABABAB",
"b	c #494949",
"c	c #DCDCDC",
"d	c #787878",
"e	c #7A7A7A",
"f	c #484848",
"g	c #646464",
"h	c #474747",
"i	c #636363",
"j	c #464646",
"k	c #767676",
"l	c #DADADA",
"m	c #454545",
"n	c #A9A9A9",
"o	c #444444",
"p	c #606060",
"q	c #434343",
"r	c #A4A4A4",
"s	c #616161",
"t	c #A3A3A3",
"u	c #BDBDBD",
"v	c #919191",
"w	c #939393",
"x	c #424242",
"y	c #9A9A9A",
"z	c #E0E0E0",
"A	c #414141",
"B	c #838383",
"C	c #B4B4B4",
"D	c #CACACA",
"E	c #404040",
"F	c #3F3F3F",
"G	c #3E3E3E",
"H	c #3D3D3D",
"........................",
"++++++++++++++++++++++++",
"@@@@@@@@@@@@@@@@@@@@@@@@",
"########################",
"$$$$$$$$%&*==*&-$$$$$$$$",
";;;;;;@>,''))'',>@;;;;;;",
"!!!!!~{']^/!!(_:'{+!!!!!",
"<<<<<['}|<<<<<<|1'2<<<<<",
"3333|456333333337,483333",
"33339'03333333333a'93333",
"bbbbc'dbbbbbbbbbbe')bbbb",
"ffff''gffffffffffg''ffff",
"hhhh''ihhhhhhhhhhi''hhhh",
"jjjj)'kjjjjjjjjjjd'ljjjj",
"mmmma'nmmmmmmmmmm['ammmm",
"oooop458oooooooo|,4poooo",
"qqqqqr'}pqqqqqqs}'tqqqqq",
"qqqqqhu']v$qq$w:'ujqqqqq",
"xxxxxxmy5''))''zymxxxxxx",
"AAAAAAAA@BCDDCB@AAAAAAAA",
"EEEEEEEEEEEEEEEEEEEEEEEE",
"FFFFFFFFFFFFFFFFFFFFFFFF",
"GGGGGGGGGGGGGGGGGGGGGGGG",
"HHHHHHHHHHHHHHHHHHHHHHHH"};
