/* XPM */
static char * stick_unfocused_xpm[] = {
"24 24 59 1",
" 	c None",
".	c #707070",
"+	c #515151",
"@	c #505050",
"#	c #4F4F4F",
"$	c #4E4E4E",
"%	c #555555",
"&	c #6D6D6D",
"*	c #838383",
"=	c #8E8E8E",
"-	c #4D4D4D",
";	c #767676",
">	c #999999",
",	c #9B9B9B",
"'	c #959595",
")	c #777777",
"!	c #4C4C4C",
"~	c #878787",
"{	c #969696",
"]	c #717171",
"^	c #727272",
"/	c #979797",
"(	c #4B4B4B",
"_	c #7B7B7B",
":	c #929292",
"<	c #585858",
"[	c #595959",
"}	c #7A7A7A",
"|	c #4A4A4A",
"1	c #9A9A9A",
"2	c #989898",
"3	c #5A5A5A",
"4	c #7D7D7D",
"5	c #7C7C7C",
"6	c #494949",
"7	c #616161",
"8	c #636363",
"9	c #484848",
"0	c #565656",
"a	c #474747",
"b	c #464646",
"c	c #5F5F5F",
"d	c #606060",
"e	c #454545",
"f	c #444444",
"g	c #535353",
"h	c #434343",
"i	c #919191",
"j	c #858585",
"k	c #6E6E6E",
"l	c #424242",
"m	c #414141",
"n	c #656565",
"o	c #7F7F7F",
"p	c #8B8B8B",
"q	c #404040",
"r	c #3F3F3F",
"s	c #3E3E3E",
"t	c #3D3D3D",
"........................",
"++++++++++++++++++++++++",
"@@@@@@@@@@@@@@@@@@@@@@@@",
"########################",
"$$$$$$$$%&*==*&%$$$$$$$$",
"------$;>,,'',,>)#------",
"!!!!!#~,{]@!!+^/,~$!!!!!",
"(((((_,:<(((((([:,}(((((",
"||||[12[||||||||3>1<||||",
"||||4,_||||||||||5,5||||",
"6666{,766666666668,'6666",
"9999,,099999999990,,9999",
"aaaa,,%aaaaaaaaaa0,,aaaa",
"bbbb',cbbbbbbbbbbd,'bbbb",
"eeee_,}eeeeeeeeee_,_eeee",
"ffffg120ffffffff02>gffff",
"hhhhh;,ighhhhhhgi,)hhhhh",
"hhhhhej,/&|hh|k/,jehhhhh",
"llllllf^2,,'',,/]hllllll",
"mmmmmmmm6noppon6mmmmmmmm",
"qqqqqqqqqqqqqqqqqqqqqqqq",
"rrrrrrrrrrrrrrrrrrrrrrrr",
"ssssssssssssssssssssssss",
"tttttttttttttttttttttttt"};
